ISSS624 - Hands-on Exercise 1:Geospatial Data Wrangling and Choropleth Mapping with R
…
Rows: 3483 Columns: 18
── Column specification ────────────────────────────────────────────────────────
Delimiter: ","
chr   (6): name, host_name, neighbourhood_group, neighbourhood, room_type, l...
dbl  (11): id, host_id, latitude, longitude, price, minimum_nights, number_o...
date  (1): last_review

ℹ Use `spec()` to retrieve the full column specification for this data.
ℹ Specify the column types or set `show_col_types = FALSE` to quiet this message.

list(listings) 

[[1]]
# A tibble: 3,483 × 18
       id name      host_id host_name neighbourhood_group neighbourhood latitude
    <dbl> <chr>       <dbl> <chr>     <chr>               <chr>            <dbl>
 1  71609 Villa in…  367042 Belinda   East Region         Tampines          1.35
 2  71896 Home in …  367042 Belinda   East Region         Tampines          1.35
 3  71903 Home in …  367042 Belinda   East Region         Tampines          1.35
 4 275343 Rental u… 1439258 Kay       Central Region      Bukit Merah       1.29
 5 275344 Rental u… 1439258 Kay       Central Region      Bukit Merah       1.29
 6 289234 Home in …  367042 Belinda   East Region         Tampines          1.34
 7 294281 Rental u… 1521514 Elizabeth Central Region      Newton            1.31
 8 324945 Rental u… 1439258 Kay       Central Region      Bukit Merah       1.29
 9 330095 Rental u… 1439258 Kay       Central Region      Bukit Merah       1.29
10 369141 Place to… 1521514 Elizabeth Central Region      Newton            1.31
# ℹ 3,473 more rows
# ℹ 11 more variables: longitude <dbl>, room_type <chr>, price <dbl>,
#   minimum_nights <dbl>, number_of_reviews <dbl>, last_review <date>,
#   reviews_per_month <dbl>, calculated_host_listings_count <dbl>,
#   availability_365 <dbl>, number_of_reviews_ltm <dbl>, license <chr>
…
`summarise()` has grouped output by 'PA', 'SZ'. You can override using the
`.groups` argument.

popdata2020

# A tibble: 332 × 7
   PA         SZ                   YOUNG `ECONOMY ACTIVE`  AGED TOTAL DEPENDENCY
   <chr>      <chr>                <dbl>            <dbl> <dbl> <dbl>      <dbl>
 1 Ang Mo Kio Ang Mo Kio Town Cen…  1440             2610   760  4810      0.843
 2 Ang Mo Kio Cheng San             6640            15460  6050 28150      0.821
 3 Ang Mo Kio Chong Boon            6150            13950  6470 26570      0.905
 4 Ang Mo Kio Kebun Bahru           5540            12090  5120 22750      0.882
 5 Ang Mo Kio Sembawang Hills       2100             3410  1310  6820      1    
 6 Ang Mo Kio Shangri-La            3960             8420  3610 15990      0.899
 7 Ang Mo Kio Tagore                2220             4200  1530  7950      0.893
 8 Ang Mo Kio Townsville            4690            11450  5100 21240      0.855
 9 Ang Mo Kio Yio Chu Kang             0                0     0     0    NaN    
10 Ang Mo Kio Yio Chu Kang East     1220             2300   750  4270      0.857
# ℹ 322 more rows

2.3.3.2 Joining the attribute data and geospatial data

Before we can perform the georelational join, one extra step is required to convert the values in PA and SZ fields to uppercase. This is because the values of PA and SZ fields are made up of upper- and lowercase. On the other, hand the SUBZONE_N and PLN_AREA_N are in uppercase.

popdata2020 <- popdata2020 %>%
  mutate_at(.vars = vars(PA, SZ), 
          .funs = list(toupper)) %>%
  filter(`ECONOMY ACTIVE` > 0)

popdata2020

# A tibble: 234 × 7
   PA         SZ                   YOUNG `ECONOMY ACTIVE`  AGED TOTAL DEPENDENCY
   <chr>      <chr>                <dbl>            <dbl> <dbl> <dbl>      <dbl>
 1 ANG MO KIO ANG MO KIO TOWN CEN…  1440             2610   760  4810      0.843
 2 ANG MO KIO CHENG SAN             6640            15460  6050 28150      0.821
 3 ANG MO KIO CHONG BOON            6150            13950  6470 26570      0.905
 4 ANG MO KIO KEBUN BAHRU           5540            12090  5120 22750      0.882
 5 ANG MO KIO SEMBAWANG HILLS       2100             3410  1310  6820      1    
 6 ANG MO KIO SHANGRI-LA            3960             8420  3610 15990      0.899
 7 ANG MO KIO TAGORE                2220             4200  1530  7950      0.893
 8 ANG MO KIO TOWNSVILLE            4690            11450  5100 21240      0.855
 9 ANG MO KIO YIO CHU KANG EAST     1220             2300   750  4270      0.857
10 ANG MO KIO YIO CHU KANG WEST     6590            12850  4680 24120      0.877
# ℹ 224 more rows
…
